md_miles_driven
…
miles_per_person %>%
  select(county, rural_rate_change, urban_rate_change, both_rate_change) %>%
  arrange(desc(both_rate_change))

## # A tibble: 24 x 6
## # Groups:   year.x, GEOID [24]
##    year.x GEOID county   rural_rate_chan~ urban_rate_chan~ both_rate_change
##     <dbl> <chr> <chr>               <dbl>            <dbl>            <dbl>
##  1   2017 24047 WORCEST~           821.              1252.            2073.
##  2   2017 24027 HOWARD             179.               970.            1149.
##  3   2017 24021 FREDERI~           345.               794.            1139.
##  4   2017 24041 TALBOT             642.               241.             883.
##  5   2017 24043 WASHING~          -103.               834.             731.
##  6   2017 24003 ANNE AR~            32.3              689.             721.
##  7   2017 24001 ALLEGANY           268.               442.             710.
##  8   2017 24025 HARFORD            132.               560.             692.
##  9   2017 24033 PRINCE ~             3.51             679.             682.
## 10   2017 24037 ST. MAR~           460.               167.             627.
## # ... with 14 more rows

# Worcester County had the highest rate of change from 2014 to 2017 in total miles driver per person.

miles_per_person %>%
  select(county, rural_rate_change, urban_rate_change, both_rate_change) %>%
  arrange(desc(urban_rate_change))

## # A tibble: 24 x 6
## # Groups:   year.x, GEOID [24]
##    year.x GEOID county   rural_rate_chan~ urban_rate_chan~ both_rate_change
##     <dbl> <chr> <chr>               <dbl>            <dbl>            <dbl>
##  1   2017 24047 WORCEST~           821.              1252.            2073.
##  2   2017 24027 HOWARD             179.               970.            1149.
##  3   2017 24043 WASHING~          -103.               834.             731.
##  4   2017 24021 FREDERI~           345.               794.            1139.
##  5   2017 24003 ANNE AR~            32.3              689.             721.
##  6   2017 24033 PRINCE ~             3.51             679.             682.
##  7   2017 24025 HARFORD            132.               560.             692.
##  8   2017 24031 MONTGOM~             8.45             528.             536.
##  9   2017 24005 BALTIMO~            40.0              497.             537.
## 10   2017 24001 ALLEGANY           268.               442.             710.
## # ... with 14 more rows

# Worcester County had the highest rate of change from 2014 to 2017 in total urban miles driver per person as well.

miles_per_person %>%
  select(county, rural_rate_change, urban_rate_change, both_rate_change) %>%
  arrange(desc(rural_rate_change))

## # A tibble: 24 x 6
## # Groups:   year.x, GEOID [24]
##    year.x GEOID county   rural_rate_chan~ urban_rate_chan~ both_rate_change
##     <dbl> <chr> <chr>               <dbl>            <dbl>            <dbl>
##  1   2017 24047 WORCEST~             821.            1252.            2073.
##  2   2017 24041 TALBOT               642.             241.             883.
##  3   2017 24037 ST. MAR~             460.             167.             627.
##  4   2017 24019 DORCHES~             372.             124.             496.
##  5   2017 24021 FREDERI~             345.             794.            1139.
##  6   2017 24035 QUEEN A~             341.             170.             511.
##  7   2017 24011 CAROLINE             274.               0              274.
##  8   2017 24001 ALLEGANY             268.             442.             710.
##  9   2017 24023 GARRETT              232.               0              232.
## 10   2017 24027 HOWARD               179.             970.            1149.
## # ... with 14 more rows
…
